adc/adc.vcd
$date
	Mon Dec 15 10:41:19 2025
$end
$version
	Icarus Verilog
$end
$timescale
	1s
$end
$scope module test $end
$var wire 1 ! sdaOut $end
$var wire 1 " sdaIn $end
$var wire 1 # isSending $end
$var wire 1 $ i2cSda $end
$var wire 1 % i2cScl $end
$var wire 2 & i2cInstruction [1:0] $end
$var wire 1 ' i2cEnable $end
$var wire 1 ( i2cComplete $end
$var wire 8 ) i2cByteToSend [7:0] $end
$var wire 8 * i2cByteReceived [7:0] $end
$var wire 16 + adcOutputData [15:0] $end
$var wire 1 , adcDataReady $end
$var reg 2 - adcChannel [1:0] $end
$var reg 1 . adcEnable $end
$var reg 1 / clk $end
$scope module a $end
$var wire 2 0 channel [1:0] $end
$var wire 1 / clk $end
$var wire 1 . enable $end
$var wire 1 ( completeI2C $end
$var wire 8 1 byteReceivedI2C [7:0] $end
$var parameter 8 2 CONFIG_REGISTER $end
$var parameter 8 3 CONVERSION_REGISTER $end
$var parameter 32 4 INST_READ_BYTE $end
$var parameter 32 5 INST_START_TX $end
$var parameter 32 6 INST_STOP_TX $end
$var parameter 32 7 INST_WRITE_BYTE $end
$var parameter 32 8 STATE_DELAY $end
$var parameter 32 9 STATE_DONE $end
$var parameter 32 : STATE_IDLE $end
$var parameter 32 ; STATE_INC_SUB_TASK $end
$var parameter 32 < STATE_RUN_TASK $end
$var parameter 32 = STATE_WAIT_FOR_I2C $end
$var parameter 32 > TASK_CHANGE_REG $end
$var parameter 32 ? TASK_CHECK_DONE $end
$var parameter 32 @ TASK_READ_VALUE $end
$var parameter 32 A TASK_SETUP $end
$var parameter 7 B address $end
$var reg 8 C byteToSendI2C [7:0] $end
$var reg 8 D counter [7:0] $end
$var reg 1 , dataReady $end
$var reg 1 ' enableI2C $end
$var reg 2 E instructionI2C [1:0] $end
$var reg 16 F outputData [15:0] $end
$var reg 1 G processStarted $end
$var reg 16 H setupRegister [15:0] $end
$var reg 5 I state [4:0] $end
$var reg 3 J subTaskIndex [2:0] $end
$var reg 2 K taskIndex [1:0] $end
$upscope $end
$scope module c $end
$var wire 8 L byteToSend [7:0] $end
$var wire 1 / clk $end
$var wire 1 ' enable $end
$var wire 2 M instruction [1:0] $end
$var wire 1 " sdaIn $end
$var parameter 32 N INST_READ_BYTE $end
$var parameter 32 O INST_START_TX $end
$var parameter 32 P INST_STOP_TX $end
$var parameter 32 Q INST_WRITE_BYTE $end
$var parameter 32 R STATE_DONE $end
$var parameter 32 S STATE_IDLE $end
$var parameter 32 T STATE_RCV_ACK $end
$var parameter 32 U STATE_SEND_ACK $end
$var reg 3 V bitToSend [2:0] $end
$var reg 8 W byteReceived [7:0] $end
$var reg 7 X clockDivider [6:0] $end
$var reg 1 ( complete $end
$var reg 1 # isSending $end
$var reg 1 % scl $end
$var reg 1 ! sdaOutReg $end
$var reg 3 Y state [2:0] $end
$upscope $end
$upscope $end
$enddefinitions $end
$comment Show the parameter values. $end
$dumpall
b110 U
b111 T
b100 S
b101 R
b11 Q
b1 P
b0 O
b10 N
b1001001 B
b0 A
b11 @
b1 ?
b10 >
b10 =
b1 <
b11 ;
b0 :
b100 9
b101 8
b11 7
b1 6
b0 5
b10 4
b0 3
b1 2
$end
#0
$dumpvars
b100 Y
b0 X
b0 W
b0 V
b0 M
b0 L
b0 K
b0 J
b0 I
b1100001110000011 H
0G
b0 F
b0 E
b0 D
b0 C
b0 1
b0 0
0/
1.
b0 -
1,
b0 +
b0 *
b0 )
x(
0'
b0 &
1%
1$
0#
1"
1!
$end
#1
0,
b1 I
1/
#2
0/
#3
b10 I
1'
1/
#4
0/
#5
b0 Y
0(
1/
#6
0/
#7
1G
b1 X
1#
1/
#8
0/
#9
b10 X
1/
#10
0/
#11
b11 X
1/
#12
0/
#13
b100 X
1/
#14
0/
#15
b101 X
1/
#16
0/
#17
b110 X
1/
#18
0/
#19
b111 X
1/
#20
0/
#21
b1000 X
1/
#22
0/
#23
b1001 X
1/
#24
0/
#25
b1010 X
1/
#26
0/
#27
b1011 X
1/
#28
0/
#29
b1100 X
1/
#30
0/
#31
b1101 X
1/
#32
0/
#33
b1110 X
1/
#34
0/
#35
b1111 X
1/
#36
0/
#37
b10000 X
1/
#38
0/
#39
b10001 X
1/
#40
0/
#41
b10010 X
1/
#42
0/
#43
b10011 X
1/
#44
0/
#45
b10100 X
1/
#46
0/
#47
b10101 X
1/
#48
0/
#49
b10110 X
1/
#50
0/
#51
b10111 X
1/
#52
0/
#53
b11000 X
1/
#54
0/
#55
b11001 X
1/
#56
0/
#57
b11010 X
1/
#58
0/
#59
b11011 X
1/
#60
0/
#61
b11100 X
1/
#62
0/
#63
b11101 X
1/
#64
0/
#65
b11110 X
1/
#66
0/
#67
b11111 X
1/
#68
0/
#69
b100000 X
1/
#70
0/
#71
0"
0$
0!
b100001 X
1/
#72
0/
#73
b100010 X
1/
#74
0/
#75
b100011 X
1/
#76
0/
#77
b100100 X
1/
#78
0/
#79
b100101 X
1/
#80
0/
#81
b100110 X
1/
#82
0/
#83
b100111 X
1/
#84
0/
#85
b101000 X
1/
#86
0/
#87
b101001 X
1/
#88
0/
#89
b101010 X
1/
#90
0/
#91
b101011 X
1/
#92
0/
#93
b101100 X
1/
#94
0/
#95
b101101 X
1/
#96
0/
#97
b101110 X
1/
#98
0/
#99
b101111 X
1/
#100
0/
#101
b110000 X
1/
#102
0/
#103
b110001 X
1/
#104
0/
#105
b110010 X
1/
#106
0/
#107
b110011 X
1/
#108
0/
#109
b110100 X
1/
#110
0/
#111
b110101 X
1/
#112
0/
#113
b110110 X
1/
#114
0/
#115
b110111 X
1/
#116
0/
#117
b111000 X
1/
#118
0/
#119
b111001 X
1/
#120
0/
#121
b111010 X
1/
#122
0/
#123
b111011 X
1/
#124
0/
#125
b111100 X
1/
#126
0/
#127
b111101 X
1/
#128
0/
#129
b111110 X
1/
#130
0/
#131
b111111 X
1/
#132
0/
#133
b1000000 X
1/
#134
0/
#135
0%
b1000001 X
1/
#136
0/
#137
b1000010 X
1/
#138
0/
#139
b1000011 X
1/
#140
0/
#141
b1000100 X
1/
#142
0/
#143
b1000101 X
1/
#144
0/
#145
b1000110 X
1/
#146
0/
#147
b1000111 X
1/
#148
0/
#149
b1001000 X
1/
#150
0/
#151
b1001001 X
1/
#152
0/
#153
b1001010 X
1/
#154
0/
#155
b1001011 X
1/
#156
0/
#157
b1001100 X
1/
#158
0/
#159
b1001101 X
1/
#160
0/
#161
b1001110 X
1/
#162
0/
#163
b1001111 X
1/
#164
0/
#165
b1010000 X
1/
#166
0/
#167
b1010001 X
1/
#168
0/
#169
b1010010 X
1/
#170
0/
#171
b1010011 X
1/
#172
0/
#173
b1010100 X
1/
#174
0/
#175
b1010101 X
1/
#176
0/
#177
b1010110 X
1/
#178
0/
#179
b1010111 X
1/
#180
0/
#181
b1011000 X
1/
#182
0/
#183
b1011001 X
1/
#184
0/
#185
b1011010 X
1/
#186
0/
#187
b1011011 X
1/
#188
0/
#189
b1011100 X
1/
#190
0/
#191
b1011101 X
1/
#192
0/
#193
b1011110 X
1/
#194
0/
#195
b1011111 X
1/
#196
0/
#197
b1100000 X
1/
#198
0/
#199
b101 Y
b1100001 X
1/
#200
0/
#201
1(
1/
#202
0/
#203
0'
0G
b11 I
1/
#204
0/
#205
b100 Y
b1 J
b1 I
1/
#206
0/
#207
b10 I
1'
b10010010 )
b10010010 C
b10010010 L
b11 &
b11 E
b11 M
1/
#208
0/
#209
b11 Y
b0 X
0(
1/
#210
0/
#211
1"
1$
1G
1!
b1 X
1/
#212
0/
#213
b10 X
1/
#214
0/
#215
b11 X
1/
#216
0/
#217
b100 X
1/
#218
0/
#219
b101 X
1/
#220
0/
#221
b110 X
1/
#222
0/
#223
b111 X
1/
#224
0/
#225
b1000 X
1/
#226
0/
#227
b1001 X
1/
#228
0/
#229
b1010 X
1/
#230
0/
#231
b1011 X
1/
#232
0/
#233
b1100 X
1/
#234
0/
#235
b1101 X
1/
#236
0/
#237
b1110 X
1/
#238
0/
#239
b1111 X
1/
#240
0/
#241
b10000 X
1/
#242
0/
#243
b10001 X
1/
#244
0/
#245
b10010 X
1/
#246
0/
#247
b10011 X
1/
#248
0/
#249
b10100 X
1/
#250
0/
#251
b10101 X
1/
#252
0/
#253
b10110 X
1/
#254
0/
#255
b10111 X
1/
#256
0/
#257
b11000 X
1/
#258
0/
#259
b11001 X
1/
#260
0/
#261
b11010 X
1/
#262
0/
#263
b11011 X
1/
#264
0/
#265
b11100 X
1/
#266
0/
#267
b11101 X
1/
#268
0/
#269
b11110 X
1/
#270
0/
#271
b11111 X
1/
#272
0/
#273
b100000 X
1/
#274
0/
#275
1%
b100001 X
1/
#276
0/
#277
b100010 X
1/
#278
0/
#279
b100011 X
1/
#280
0/
#281
b100100 X
1/
#282
0/
#283
b100101 X
1/
#284
0/
#285
b100110 X
1/
#286
0/
#287
b100111 X
1/
#288
0/
#289
b101000 X
1/
#290
0/
#291
b101001 X
1/
#292
0/
#293
b101010 X
1/
#294
0/
#295
b101011 X
1/
#296
0/
#297
b101100 X
1/
#298
0/
#299
b101101 X
1/
#300
0/
#301
b101110 X
1/
#302
0/
#303
b101111 X
1/
#304
0/
#305
b110000 X
1/
#306
0/
#307
b110001 X
1/
#308
0/
#309
b110010 X
1/
#310
0/
#311
b110011 X
1/
#312
0/
#313
b110100 X
1/
#314
0/
#315
b110101 X
1/
#316
0/
#317
b110110 X
1/
#318
0/
#319
b110111 X
1/
#320
0/
#321
b111000 X
1/
#322
0/
#323
b111001 X
1/
#324
0/
#325
b111010 X
1/
#326
0/
#327
b111011 X
1/
#328
0/
#329
b111100 X
1/
#330
0/
#331
b111101 X
1/
#332
0/
#333
b111110 X
1/
#334
0/
#335
b111111 X
1/
#336
0/
#337
b1000000 X
1/
#338
0/
#339
b1000001 X
1/
#340
0/
#341
b1000010 X
1/
#342
0/
#343
b1000011 X
1/
#344
0/
#345
b1000100 X
1/
#346
0/
#347
b1000101 X
1/
#348
0/
#349
b1000110 X
1/
#350
0/
#351
b1000111 X
1/
#352
0/
#353
b1001000 X
1/
#354
0/
#355
b1001001 X
1/
#356
0/
#357
b1001010 X
1/
#358
0/
#359
b1001011 X
1/
#360
0/
#361
b1001100 X
1/
#362
0/
#363
b1001101 X
1/
#364
0/
#365
b1001110 X
1/
#366
0/
#367
b1001111 X
1/
#368
0/
#369
b1010000 X
1/
#370
0/
#371
b1010001 X
1/
#372
0/
#373
b1010010 X
1/
#374
0/
#375
b1010011 X
1/
#376
0/
#377
b1010100 X
1/
#378
0/
#379
b1010101 X
1/
#380
0/
#381
b1010110 X
1/
#382
0/
#383
b1010111 X
1/
#384
0/
#385
b1011000 X
1/
#386
0/
#387
b1011001 X
1/
#388
0/
#389
b1011010 X
1/
#390
0/
#391
b1011011 X
1/
#392
0/
#393
b1011100 X
1/
#394
0/
#395
b1011101 X
1/
#396
0/
#397
b1011110 X
1/
#398
0/
#399
b1011111 X
1/
#400
0/
#401
b1100000 X
1/
#402
0/
#403
0%
b1100001 X
1/
#404
0/
#405
b1100010 X
1/
#406
0/
#407
b1100011 X
1/
#408
0/
#409
b1100100 X
1/
#410
0/
#411
b1100101 X
1/
#412
0/
#413
b1100110 X
1/
#414
0/
#415
b1100111 X
1/
#416
0/
#417
b1101000 X
1/
#418
0/
#419
b1101001 X
1/
#420
0/
#421
b1101010 X
1/
#422
0/
#423
b1101011 X
1/
#424
0/
#425
b1101100 X
1/
#426
0/
#427
b1101101 X
1/
#428
0/
#429
b1101110 X
1/
#430
0/
#431
b1101111 X
1/
#432
0/
#433
b1110000 X
1/
#434
0/
#435
b1110001 X
1/
#436
0/
#437
b1110010 X
1/
#438
0/
#439
b1110011 X
1/
#440
0/
#441
b1110100 X
1/
#442
0/
#443
b1110101 X
1/
#444
0/
#445
b1110110 X
1/
#446
0/
#447
b1110111 X
1/
#448
0/
#449
b1111000 X
1/
#450
0/
#451
b1111001 X
1/
#452
0/
#453
b1111010 X
1/
#454
0/
#455
b1111011 X
1/
#456
0/
#457
b1111100 X
1/
#458
0/
#459
b1111101 X
1/
#460
0/
#461
b1111110 X
1/
#462
0/
#463
b1111111 X
1/
#464
0/
#465
b1 V
b0 X
1/
#466
0/
#467
0"
0$
0!
b1 X
1/
#468
0/
#469
b10 X
1/
#470
0/
#471
b11 X
1/
#472
0/
#473
b100 X
1/
#474
0/
#475
b101 X
1/
#476
0/
#477
b110 X
1/
#478
0/
#479
b111 X
1/
#480
0/
#481
b1000 X
1/
#482
0/
#483
b1001 X
1/
#484
0/
#485
b1010 X
1/
#486
0/
#487
b1011 X
1/
#488
0/
#489
b1100 X
1/
#490
0/
#491
b1101 X
1/
#492
0/
#493
b1110 X
1/
#494
0/
#495
b1111 X
1/
#496
0/
#497
b10000 X
1/
#498
0/
#499
b10001 X
1/
#500
0/
#501
b10010 X
1/
#502
0/
#503
b10011 X
1/
#504
0/
#505
b10100 X
1/
#506
0/
#507
b10101 X
1/
#508
0/
#509
b10110 X
1/
#510
0/
#511
b10111 X
1/
#512
0/
#513
b11000 X
1/
#514
0/
#515
b11001 X
1/
#516
0/
#517
b11010 X
1/
#518
0/
#519
b11011 X
1/
#520
0/
#521
b11100 X
1/
#522
0/
#523
b11101 X
1/
#524
0/
#525
b11110 X
1/
#526
0/
#527
b11111 X
1/
#528
0/
#529
b100000 X
1/
#530
0/
#531
1%
b100001 X
1/
#532
0/
#533
b100010 X
1/
#534
0/
#535
b100011 X
1/
#536
0/
#537
b100100 X
1/
#538
0/
#539
b100101 X
1/
#540
0/
#541
b100110 X
1/
#542
0/
#543
b100111 X
1/
#544
0/
#545
b101000 X
1/
#546
0/
#547
b101001 X
1/
#548
0/
#549
b101010 X
1/
#550
0/
#551
b101011 X
1/
#552
0/
#553
b101100 X
1/
#554
0/
#555
b101101 X
1/
#556
0/
#557
b101110 X
1/
#558
0/
#559
b101111 X
1/
#560
0/
#561
b110000 X
1/
#562
0/
#563
b110001 X
1/
#564
0/
#565
b110010 X
1/
#566
0/
#567
b110011 X
1/
#568
0/
#569
b110100 X
1/
#570
0/
#571
b110101 X
1/
#572
0/
#573
b110110 X
1/
#574
0/
#575
b110111 X
1/
#576
0/
#577
b111000 X
1/
#578
0/
#579
b111001 X
1/
#580
0/
#581
b111010 X
1/
#582
0/
#583
b111011 X
1/
#584
0/
#585
b111100 X
1/
#586
0/
#587
b111101 X
1/
#588
0/
#589
b111110 X
1/
#590
0/
#591
b111111 X
1/
#592
0/
#593
b1000000 X
1/
#594
0/
#595
b1000001 X
1/
#596
0/
#597
b1000010 X
1/
#598
0/
#599
b1000011 X
1/
#600
0/
#601
b1000100 X
1/
#602
0/
#603
b1000101 X
1/
#604
0/
#605
b1000110 X
1/
#606
0/
#607
b1000111 X
1/
#608
0/
#609
b1001000 X
1/
#610
0/
#611
b1001001 X
1/
#612
0/
#613
b1001010 X
1/
#614
0/
#615
b1001011 X
1/
#616
0/
#617
b1001100 X
1/
#618
0/
#619
b1001101 X
1/
#620
0/
#621
b1001110 X
1/
#622
0/
#623
b1001111 X
1/
#624
0/
#625
b1010000 X
1/
#626
0/
#627
b1010001 X
1/
#628
0/
#629
b1010010 X
1/
#630
0/
#631
b1010011 X
1/
#632
0/
#633
b1010100 X
1/
#634
0/
#635
b1010101 X
1/
#636
0/
#637
b1010110 X
1/
#638
0/
#639
b1010111 X
1/
#640
0/
#641
b1011000 X
1/
#642
0/
#643
b1011001 X
1/
#644
0/
#645
b1011010 X
1/
#646
0/
#647
b1011011 X
1/
#648
0/
#649
b1011100 X
1/
#650
0/
#651
b1011101 X
1/
#652
0/
#653
b1011110 X
1/
#654
0/
#655
b1011111 X
1/
#656
0/
#657
b1100000 X
1/
#658
0/
#659
0%
b1100001 X
1/
#660
0/
#661
b1100010 X
1/
#662
0/
#663
b1100011 X
1/
#664
0/
#665
b1100100 X
1/
#666
0/
#667
b1100101 X
1/
#668
0/
#669
b1100110 X
1/
#670
0/
#671
b1100111 X
1/
#672
0/
#673
b1101000 X
1/
#674
0/
#675
b1101001 X
1/
#676
0/
#677
b1101010 X
1/
#678
0/
#679
b1101011 X
1/
#680
0/
#681
b1101100 X
1/
#682
0/
#683
b1101101 X
1/
#684
0/
#685
b1101110 X
1/
#686
0/
#687
b1101111 X
1/
#688
0/
#689
b1110000 X
1/
#690
0/
#691
b1110001 X
1/
#692
0/
#693
b1110010 X
1/
#694
0/
#695
b1110011 X
1/
#696
0/
#697
b1110100 X
1/
#698
0/
#699
b1110101 X
1/
#700
0/
#701
b1110110 X
1/
#702
0/
#703
b1110111 X
1/
#704
0/
#705
b1111000 X
1/
#706
0/
#707
b1111001 X
1/
#708
0/
#709
b1111010 X
1/
#710
0/
#711
b1111011 X
1/
#712
0/
#713
b1111100 X
1/
#714
0/
#715
b1111101 X
1/
#716
0/
#717
b1111110 X
1/
#718
0/
#719
b1111111 X
1/
#720
0/
#721
b10 V
b0 X
1/
#722
0/
#723
b1 X
1/
#724
0/
#725
b10 X
1/
#726
0/
#727
b11 X
1/
#728
0/
#729
b100 X
1/
#730
0/
#731
b101 X
1/
#732
0/
#733
b110 X
1/
#734
0/
#735
b111 X
1/
#736
0/
#737
b1000 X
1/
#738
0/
#739
b1001 X
1/
#740
0/
#741
b1010 X
1/
#742
0/
#743
b1011 X
1/
#744
0/
#745
b1100 X
1/
#746
0/
#747
b1101 X
1/
#748
0/
#749
b1110 X
1/
#750
0/
#751
b1111 X
1/
#752
0/
#753
b10000 X
1/
#754
0/
#755
b10001 X
1/
#756
0/
#757
b10010 X
1/
#758
0/
#759
b10011 X
1/
#760
0/
#761
b10100 X
1/
#762
0/
#763
b10101 X
1/
#764
0/
#765
b10110 X
1/
#766
0/
#767
b10111 X
1/
#768
0/
#769
b11000 X
1/
#770
0/
#771
b11001 X
1/
#772
0/
#773
b11010 X
1/
#774
0/
#775
b11011 X
1/
#776
0/
#777
b11100 X
1/
#778
0/
#779
b11101 X
1/
#780
0/
#781
b11110 X
1/
#782
0/
#783
b11111 X
1/
#784
0/
#785
b100000 X
1/
#786
0/
#787
1%
b100001 X
1/
#788
0/
#789
b100010 X
1/
#790
0/
#791
b100011 X
1/
#792
0/
#793
b100100 X
1/
#794
0/
#795
b100101 X
1/
#796
0/
#797
b100110 X
1/
#798
0/
#799
b100111 X
1/
#800
0/
#801
b101000 X
1/
#802
0/
#803
b101001 X
1/
#804
0/
#805
b101010 X
1/
#806
0/
#807
b101011 X
1/
#808
0/
#809
b101100 X
1/
#810
0/
#811
b101101 X
1/
#812
0/
#813
b101110 X
1/
#814
0/
#815
b101111 X
1/
#816
0/
#817
b110000 X
1/
#818
0/
#819
b110001 X
1/
#820
0/
#821
b110010 X
1/
#822
0/
#823
b110011 X
1/
#824
0/
#825
b110100 X
1/
#826
0/
#827
b110101 X
1/
#828
0/
#829
b110110 X
1/
#830
0/
#831
b110111 X
1/
#832
0/
#833
b111000 X
1/
#834
0/
#835
b111001 X
1/
#836
0/
#837
b111010 X
1/
#838
0/
#839
b111011 X
1/
#840
0/
#841
b111100 X
1/
#842
0/
#843
b111101 X
1/
#844
0/
#845
b111110 X
1/
#846
0/
#847
b111111 X
1/
#848
0/
#849
b1000000 X
1/
#850
0/
#851
b1000001 X
1/
#852
0/
#853
b1000010 X
1/
#854
0/
#855
b1000011 X
1/
#856
0/
#857
b1000100 X
1/
#858
0/
#859
b1000101 X
1/
#860
0/
#861
b1000110 X
1/
#862
0/
#863
b1000111 X
1/
#864
0/
#865
b1001000 X
1/
#866
0/
#867
b1001001 X
1/
#868
0/
#869
b1001010 X
1/
#870
0/
#871
b1001011 X
1/
#872
0/
#873
b1001100 X
1/
#874
0/
#875
b1001101 X
1/
#876
0/
#877
b1001110 X
1/
#878
0/
#879
b1001111 X
1/
#880
0/
#881
b1010000 X
1/
#882
0/
#883
b1010001 X
1/
#884
0/
#885
b1010010 X
1/
#886
0/
#887
b1010011 X
1/
#888
0/
#889
b1010100 X
1/
#890
0/
#891
b1010101 X
1/
#892
0/
#893
b1010110 X
1/
#894
0/
#895
b1010111 X
1/
#896
0/
#897
b1011000 X
1/
#898
0/
#899
b1011001 X
1/
#900
0/
#901
b1011010 X
1/
#902
0/
#903
b1011011 X
1/
#904
0/
#905
b1011100 X
1/
#906
0/
#907
b1011101 X
1/
#908
0/
#909
b1011110 X
1/
#910
0/
#911
b1011111 X
1/
#912
0/
#913
b1100000 X
1/
#914
0/
#915
0%
b1100001 X
1/
#916
0/
#917
b1100010 X
1/
#918
0/
#919
b1100011 X
1/
#920
0/
#921
b1100100 X
1/
#922
0/
#923
b1100101 X
1/
#924
0/
#925
b1100110 X
1/
#926
0/
#927
b1100111 X
1/
#928
0/
#929
b1101000 X
1/
#930
0/
#931
b1101001 X
1/
#932
0/
#933
b1101010 X
1/
#934
0/
#935
b1101011 X
1/
#936
0/
#937
b1101100 X
1/
#938
0/
#939
b1101101 X
1/
#940
0/
#941
b1101110 X
1/
#942
0/
#943
b1101111 X
1/
#944
0/
#945
b1110000 X
1/
#946
0/
#947
b1110001 X
1/
#948
0/
#949
b1110010 X
1/
#950
0/
#951
b1110011 X
1/
#952
0/
#953
b1110100 X
1/
#954
0/
#955
b1110101 X
1/
#956
0/
#957
b1110110 X
1/
#958
0/
#959
b1110111 X
1/
#960
0/
#961
b1111000 X
1/
#962
0/
#963
b1111001 X
1/
#964
0/
#965
b1111010 X
1/
#966
0/
#967
b1111011 X
1/
#968
0/
#969
b1111100 X
1/
#970
0/
#971
b1111101 X
1/
#972
0/
#973
b1111110 X
1/
#974
0/
#975
b1111111 X
1/
#976
0/
#977
b11 V
b0 X
1/
#978
0/
#979
1"
1$
1!
b1 X
1/
#980
0/
#981
b10 X
1/
#982
0/
#983
b11 X
1/
#984
0/
#985
b100 X
1/
#986
0/
#987
b101 X
1/
#988
0/
#989
b110 X
1/
#990
0/
#991
b111 X
1/
#992
0/
#993
b1000 X
1/
#994
0/
#995
b1001 X
1/
#996
0/
#997
b1010 X
1/
#998
0/
#999
b1011 X
1/
#1000
0/
#1001
b1100 X
1/
#1002
0/
#1003
b1101 X
1/
#1004
0/
#1005
b1110 X
1/
#1006
0/
#1007
b1111 X
1/
#1008
0/
#1009
b10000 X
1/
#1010
0/
#1011
b10001 X
1/
#1012
0/
#1013
b10010 X
1/
#1014
0/
#1015
b10011 X
1/
#1016
0/
#1017
b10100 X
1/
#1018
0/
#1019
b10101 X
1/
#1020
0/
#1021
b10110 X
1/
#1022
0/
#1023
b10111 X
1/
#1024
0/
#1025
b11000 X
1/
#1026
0/
#1027
b11001 X
1/
#1028
0/
#1029
b11010 X
1/
#1030
0/
#1031
b11011 X
1/
#1032
0/
#1033
b11100 X
1/
#1034
0/
#1035
b11101 X
1/
#1036
0/
#1037
b11110 X
1/
#1038
0/
#1039
b11111 X
1/
#1040
0/
#1041
b100000 X
1/
#1042
0/
#1043
1%
b100001 X
1/
#1044
0/
#1045
b100010 X
1/
#1046
0/
#1047
b100011 X
1/
#1048
0/
#1049
b100100 X
1/
#1050
0/
#1051
b100101 X
1/
#1052
0/
#1053
b100110 X
1/
#1054
0/
#1055
b100111 X
1/
#1056
0/
#1057
b101000 X
1/
#1058
0/
#1059
b101001 X
1/
#1060
0/
#1061
b101010 X
1/
#1062
0/
#1063
b101011 X
1/
#1064
0/
#1065
b101100 X
1/
#1066
0/
#1067
b101101 X
1/
#1068
0/
#1069
b101110 X
1/
#1070
0/
#1071
b101111 X
1/
#1072
0/
#1073
b110000 X
1/
#1074
0/
#1075
b110001 X
1/
#1076
0/
#1077
b110010 X
1/
#1078
0/
#1079
b110011 X
1/
#1080
0/
#1081
b110100 X
1/
#1082
0/
#1083
b110101 X
1/
#1084
0/
#1085
b110110 X
1/
#1086
0/
#1087
b110111 X
1/
#1088
0/
#1089
b111000 X
1/
#1090
0/
#1091
b111001 X
1/
#1092
0/
#1093
b111010 X
1/
#1094
0/
#1095
b111011 X
1/
#1096
0/
#1097
b111100 X
1/
#1098
0/
#1099
b111101 X
1/
#1100
0/
#1101
b111110 X
1/
#1102
0/
#1103
b111111 X
1/
#1104
0/
#1105
b1000000 X
1/
#1106
0/
#1107
b1000001 X
1/
#1108
0/
#1109
b1000010 X
1/
#1110
0/
#1111
b1000011 X
1/
#1112
0/
#1113
b1000100 X
1/
#1114
0/
#1115
b1000101 X
1/
#1116
0/
#1117
b1000110 X
1/
#1118
0/
#1119
b1000111 X
1/
#1120
0/
#1121
b1001000 X
1/
#1122
0/
#1123
b1001001 X
1/
#1124
0/
#1125
b1001010 X
1/
#1126
0/
#1127
b1001011 X
1/
#1128
0/
#1129
b1001100 X
1/
#1130
0/
#1131
b1001101 X
1/
#1132
0/
#1133
b1001110 X
1/
#1134
0/
#1135
b1001111 X
1/
#1136
0/
#1137
b1010000 X
1/
#1138
0/
#1139
b1010001 X
1/
#1140
0/
#1141
b1010010 X
1/
#1142
0/
#1143
b1010011 X
1/
#1144
0/
#1145
b1010100 X
1/
#1146
0/
#1147
b1010101 X
1/
#1148
0/
#1149
b1010110 X
1/
#1150
0/
#1151
b1010111 X
1/
#1152
0/
#1153
b1011000 X
1/
#1154
0/
#1155
b1011001 X
1/
#1156
0/
#1157
b1011010 X
1/
#1158
0/
#1159
b1011011 X
1/
#1160
0/
#1161
b1011100 X
1/
#1162
0/
#1163
b1011101 X
1/
#1164
0/
#1165
b1011110 X
1/
#1166
0/
#1167
b1011111 X
1/
#1168
0/
#1169
b1100000 X
1/
#1170
0/
#1171
0%
b1100001 X
1/
#1172
0/
#1173
b1100010 X
1/
#1174
0/
#1175
b1100011 X
1/
#1176
0/
#1177
b1100100 X
1/
#1178
0/
#1179
b1100101 X
1/
#1180
0/
#1181
b1100110 X
1/
#1182
0/
#1183
b1100111 X
1/
#1184
0/
#1185
b1101000 X
1/
#1186
0/
#1187
b1101001 X
1/
#1188
0/
#1189
b1101010 X
1/
#1190
0/
#1191
b1101011 X
1/
#1192
0/
#1193
b1101100 X
1/
#1194
0/
#1195
b1101101 X
1/
#1196
0/
#1197
b1101110 X
1/
#1198
0/
#1199
b1101111 X
1/
#1200
0/
#1201
b1110000 X
1/
#1202
0/
#1203
b1110001 X
1/
#1204
0/
#1205
b1110010 X
1/
#1206
0/
#1207
b1110011 X
1/
#1208
0/
#1209
b1110100 X
1/
#1210
0/
#1211
b1110101 X
1/
#1212
0/
#1213
b1110110 X
1/
#1214
0/
#1215
b1110111 X
1/
#1216
0/
#1217
b1111000 X
1/
#1218
0/
#1219
b1111001 X
1/
#1220
0/
#1221
b1111010 X
1/
#1222
0/
#1223
b1111011 X
1/
#1224
0/
#1225
b1111100 X
1/
#1226
0/
#1227
b1111101 X
1/
#1228
0/
#1229
b1111110 X
1/
#1230
0/
#1231
b1111111 X
1/
#1232
0/
#1233
b100 V
b0 X
1/
#1234
0/
#1235
0"
0$
0!
b1 X
1/
#1236
0/
#1237
b10 X
1/
#1238
0/
#1239
b11 X
1/
#1240
0/
#1241
b100 X
1/
#1242
0/
#1243
b101 X
1/
#1244
0/
#1245
b110 X
1/
#1246
0/
#1247
b111 X
1/
#1248
0/
#1249
b1000 X
1/
#1250
0/
#1251
b1001 X
1/
#1252
0/
#1253
b1010 X
1/
#1254
0/
#1255
b1011 X
1/
#1256
0/
#1257
b1100 X
1/
#1258
0/
#1259
b1101 X
1/
#1260
0/
#1261
b1110 X
1/
#1262
0/
#1263
b1111 X
1/
#1264
0/
#1265
b10000 X
1/
#1266
0/
#1267
b10001 X
1/
#1268
0/
#1269
b10010 X
1/
#1270
0/
#1271
b10011 X
1/
#1272
0/
#1273
b10100 X
1/
#1274
0/
#1275
b10101 X
1/
#1276
0/
#1277
b10110 X
1/
#1278
0/
#1279
b10111 X
1/
#1280
0/
#1281
b11000 X
1/
#1282
0/
#1283
b11001 X
1/
#1284
0/
#1285
b11010 X
1/
#1286
0/
#1287
b11011 X
1/
#1288
0/
#1289
b11100 X
1/
#1290
0/
#1291
b11101 X
1/
#1292
0/
#1293
b11110 X
1/
#1294
0/
#1295
b11111 X
1/
#1296
0/
#1297
b100000 X
1/
#1298
0/
#1299
1%
b100001 X
1/
#1300
0/
#1301
b100010 X
1/
#1302
0/
#1303
b100011 X
1/
#1304
0/
#1305
b100100 X
1/
#1306
0/
#1307
b100101 X
1/
#1308
0/
#1309
b100110 X
1/
#1310
0/
#1311
b100111 X
1/
#1312
0/
#1313
b101000 X
1/
#1314
0/
#1315
b101001 X
1/
#1316
0/
#1317
b101010 X
1/
#1318
0/
#1319
b101011 X
1/
#1320
0/
#1321
b101100 X
1/
#1322
0/
#1323
b101101 X
1/
#1324
0/
#1325
b101110 X
1/
#1326
0/
#1327
b101111 X
1/
#1328
0/
#1329
b110000 X
1/
#1330
0/
#1331
b110001 X
1/
#1332
0/
#1333
b110010 X
1/
#1334
0/
#1335
b110011 X
1/
#1336
0/
#1337
b110100 X
1/
#1338
0/
#1339
b110101 X
1/
#1340
0/
#1341
b110110 X
1/
#1342
0/
#1343
b110111 X
1/
#1344
0/
#1345
b111000 X
1/
#1346
0/
#1347
b111001 X
1/
#1348
0/
#1349
b111010 X
1/
#1350
0/
#1351
b111011 X
1/
#1352
0/
#1353
b111100 X
1/
#1354
0/
#1355
b111101 X
1/
#1356
0/
#1357
b111110 X
1/
#1358
0/
#1359
b111111 X
1/
#1360
0/
#1361
b1000000 X
1/
#1362
0/
#1363
b1000001 X
1/
#1364
0/
#1365
b1000010 X
1/
#1366
0/
#1367
b1000011 X
1/
#1368
0/
#1369
b1000100 X
1/
#1370
0/
#1371
b1000101 X
1/
#1372
0/
#1373
b1000110 X
1/
#1374
0/
#1375
b1000111 X
1/
#1376
0/
#1377
b1001000 X
1/
#1378
0/
