3LFCC/3LFCC.vcd
$date
	Wed Dec 17 16:26:21 2025
$end
$version
	Icarus Verilog
$end
$timescale
	1ps
$end
$scope module test $end
$var wire 8 ! pwm_out [7:0] $end
$var reg 1 " clk_125m $end
$var reg 1 # rst_user $end
$var reg 1 $ sw0 $end
$var reg 1 % sw1 $end
$var reg 1 & vauxn14 $end
$var reg 1 ' vauxn15 $end
$var reg 1 ( vauxn7 $end
$var reg 1 ) vauxp14 $end
$var reg 1 * vauxp15 $end
$var reg 1 + vauxp7 $end
$scope module uut $end
$var wire 16 , adc_data_out [15:0] $end
$var wire 1 - adc_drdy $end
$var wire 1 . adc_eoc $end
$var wire 1 / clk_100m $end
$var wire 1 " clk_i $end
$var wire 1 # rst_i $end
$var wire 1 0 rst_ni $end
$var wire 1 & vauxn14_i $end
$var wire 1 ' vauxn15_i $end
$var wire 1 ( vauxn7_i $end
$var wire 1 ) vauxp14_i $end
$var wire 1 * vauxp15_i $end
$var wire 1 + vauxp7_i $end
$var wire 4 1 pwm_signals [3:0] $end
$var wire 8 2 pwm_o [7:0] $end
$var wire 7 3 duty_d2 [6:0] $end
$var wire 7 4 duty_d1 [6:0] $end
$var wire 1 5 adc_start_conv $end
$var parameter 32 6 STEP_CYCLES $end
$var parameter 16 7 VREF_0V0 $end
$var parameter 16 8 VREF_0V6 $end
$var parameter 16 9 VREF_1V2 $end
$var parameter 16 : VREF_1V8 $end
$var parameter 16 ; V_FC_REF $end
$var reg 7 < adc_channel_addr [6:0] $end
$var reg 2 = ch_idx_q [1:0] $end
$var reg 1 > seq_dir_q $end
$var reg 3 ? seq_idx_q [2:0] $end
$var reg 21 @ tick_cnt_q [20:0] $end
$var reg 16 A v_fc_calc [15:0] $end
$var reg 16 B v_meas_ch14_q [15:0] $end
$var reg 16 C v_meas_ch15_q [15:0] $end
$var reg 16 D v_meas_ch7_q [15:0] $end
$var reg 16 E v_out_meas [15:0] $end
$var reg 16 F v_out_ref_q [15:0] $end
$scope module u_controller $end
$var wire 7 G D1 [6:0] $end
$var wire 7 H D2 [6:0] $end
$var wire 16 I Vfc [15:0] $end
$var wire 16 J Vfcref [15:0] $end
$var wire 16 K Vout [15:0] $end
$var wire 16 L Voutref [15:0] $end
$var wire 1 M ce_out $end
$var wire 1 / clk $end
$var wire 1 N clk_enable $end
$var wire 1 O enb $end
$var wire 21 P ex [20:0] $end
$var wire 21 Q ex_1 [20:0] $end
$var wire 21 R ex_2 [20:0] $end
$var wire 21 S ex_3 [20:0] $end
$var wire 1 T reset $end
$var wire 21 U tmp [20:0] $end
$var wire 1 V tmp_1 $end
$var wire 11 W tmp_14 [10:0] $end
$var wire 21 X ui [20:0] $end
$var wire 21 Y ui_aux [20:0] $end
$var wire 11 Z uv [10:0] $end
$var wire 9 [ y1_1 [8:0] $end
$var wire 9 \ y1 [8:0] $end
$var wire 21 ] x [20:0] $end
$var wire 1 ^ tmp_9 $end
$var wire 21 _ tmp_8 [20:0] $end
$var wire 1 ` tmp_7 $end
$var wire 21 a tmp_4 [20:0] $end
$var wire 1 b tmp_3 $end
$var wire 21 c tmp_2 [20:0] $end
$var wire 11 d tmp_11 [10:0] $end
$var wire 21 e tmp_10 [20:0] $end
$var wire 23 f p47y1_sub_temp [22:0] $end
$var wire 23 g p47y1_sub_cast_1 [22:0] $end
$var wire 23 h p47y1_sub_cast [22:0] $end
$var wire 23 i p45y1_add_temp [22:0] $end
$var wire 23 j p45y1_add_cast_1 [22:0] $end
$var wire 23 k p45y1_add_cast [22:0] $end
$var wire 7 l D2_aux [6:0] $end
$var wire 7 m D1_aux [6:0] $end
$var reg 38 n p15xUik_cast [37:0] $end
$var reg 39 o p15xUik_mul_temp [38:0] $end
$var reg 18 p p15xUik_sub_cast [17:0] $end
$var reg 16 q p15xUik_sub_cast_0 [15:0] $end
$var reg 19 r p15xUik_sub_cast_1 [18:0] $end
$var reg 18 s p15xUik_sub_cast_2 [17:0] $end
$var reg 16 t p15xUik_sub_cast_3 [15:0] $end
$var reg 19 u p15xUik_sub_cast_4 [18:0] $end
$var reg 20 v p15xUik_sub_cast_5 [19:0] $end
$var reg 20 w p15xUik_sub_cast_6 [19:0] $end
$var reg 19 x p15xUik_sub_temp [18:0] $end
$var reg 20 y p15xUik_sub_temp_0 [19:0] $end
$var reg 32 z p15xUik_t_0 [31:0] $end
$var reg 21 { p17tmp_add_cast [20:0] $end
$var reg 20 | p17tmp_add_cast_0 [19:0] $end
$var reg 21 } p17tmp_add_cast_1 [20:0] $end
$var reg 21 ~ p17tmp_add_temp [20:0] $end
$var reg 17 !" p17tmp_mul_temp [16:0] $end
$var reg 21 "" p17tmp_mul_temp_0 [20:0] $end
$var reg 32 #" p17tmp_t_0 [31:0] $end
$var reg 32 $" p18xUik_t_0 [31:0] $end
$var reg 32 %" p19xXik_t_0 [31:0] $end
$var reg 32 &" p22tmp_t_0 [31:0] $end
$var reg 37 '" p33xUik_cast [36:0] $end
$var reg 38 (" p33xUik_mul_temp [37:0] $end
$var reg 18 )" p33xUik_sub_cast [17:0] $end
$var reg 16 *" p33xUik_sub_cast_0 [15:0] $end
$var reg 19 +" p33xUik_sub_cast_1 [18:0] $end
$var reg 18 ," p33xUik_sub_cast_2 [17:0] $end
$var reg 16 -" p33xUik_sub_cast_3 [15:0] $end
$var reg 19 ." p33xUik_sub_cast_4 [18:0] $end
$var reg 21 /" p33xUik_sub_cast_5 [20:0] $end
$var reg 21 0" p33xUik_sub_cast_6 [20:0] $end
$var reg 19 1" p33xUik_sub_temp [18:0] $end
$var reg 21 2" p33xUik_sub_temp_0 [20:0] $end
$var reg 32 3" p33xUik_t_0 [31:0] $end
$var reg 34 4" p35tmp_add_cast [33:0] $end
$var reg 35 5" p35tmp_add_cast_0 [34:0] $end
$var reg 33 6" p35tmp_add_cast_1 [32:0] $end
$var reg 35 7" p35tmp_add_cast_2 [34:0] $end
$var reg 35 8" p35tmp_add_temp [34:0] $end
$var reg 22 9" p35tmp_cast [21:0] $end
$var reg 35 :" p35tmp_mul_temp [34:0] $end
$var reg 34 ;" p35tmp_mul_temp_0 [33:0] $end
$var reg 32 <" p35tmp_t_0 [31:0] $end
$var reg 32 =" p36xUik_t_0 [31:0] $end
$var reg 32 >" p37xXik_t_0 [31:0] $end
$var reg 32 ?" p39tmp_t_0 [31:0] $end
$var reg 32 @" xUik_reg_t_0_0 [31:0] $end
$var reg 32 A" xXik_reg_t_0_0 [31:0] $end
$scope begin xUik_reg_1_process $end
$upscope $end
$scope begin xUik_reg_process $end
$upscope $end
$scope begin xXik_reg_1_process $end
$upscope $end
$scope begin xXik_reg_process $end
$upscope $end
$upscope $end
$scope module u_modulator $end
$var wire 1 / clk_i $end
$var wire 7 B" duty_d1_i [6:0] $end
$var wire 7 C" duty_d2_i [6:0] $end
$var wire 1 D" not_cmp_out_1 $end
$var wire 1 E" not_cmp_out_2 $end
$var wire 1 0 rst_ni $end
$var wire 7 F" triangular_180 [6:0] $end
$var wire 7 G" triangular_0 [6:0] $end
$var wire 4 H" pwm_o [3:0] $end
$var wire 1 I" pmos2_delayed $end
$var wire 1 J" pmos1_delayed $end
$var wire 1 K" nmos2_delayed $end
$var wire 1 L" nmos1_delayed $end
$var wire 1 M" cmp_out_2 $end
$var wire 1 N" cmp_out_1 $end
$var wire 1 O" adc_trigger_o $end
$var parameter 5 P" DeadTime $end
$scope module u_cmp_1 $end
$var wire 7 Q" in1_i [6:0] $end
$var wire 7 R" in2_i [6:0] $end
$var parameter 32 S" Width $end
$var reg 1 N" cmp_o $end
$upscope $end
$scope module u_cmp_2 $end
$var wire 7 T" in1_i [6:0] $end
$var wire 7 U" in2_i [6:0] $end
$var parameter 32 V" Width $end
$var reg 1 M" cmp_o $end
$upscope $end
$scope module u_dt_gen_1 $end
$var wire 1 / clk_i $end
$var wire 5 W" dt_i [4:0] $end
$var wire 1 N" signal_i $end
$var wire 1 X" dead_time_finished $end
$var parameter 32 Y" DeadTimeWidth $end
$var reg 5 Z" counter_q [4:0] $end
$var reg 1 J" signal_delayed_o $end
$upscope $end
$scope module u_dt_gen_2 $end
$var wire 1 / clk_i $end
$var wire 5 [" dt_i [4:0] $end
$var wire 1 D" signal_i $end
$var wire 1 \" dead_time_finished $end
$var parameter 32 ]" DeadTimeWidth $end
$var reg 5 ^" counter_q [4:0] $end
$var reg 1 K" signal_delayed_o $end
$upscope $end
$scope module u_dt_gen_3 $end
$var wire 1 / clk_i $end
$var wire 5 _" dt_i [4:0] $end
$var wire 1 M" signal_i $end
$var wire 1 `" dead_time_finished $end
$var parameter 32 a" DeadTimeWidth $end
$var reg 5 b" counter_q [4:0] $end
$var reg 1 I" signal_delayed_o $end
$upscope $end
$scope module u_dt_gen_4 $end
$var wire 1 / clk_i $end
$var wire 5 c" dt_i [4:0] $end
$var wire 1 E" signal_i $end
$var wire 1 d" dead_time_finished $end
$var parameter 32 e" DeadTimeWidth $end
$var reg 5 f" counter_q [4:0] $end
$var reg 1 L" signal_delayed_o $end
$upscope $end
$scope module u_sig_gen_0 $end
$var wire 1 / clk_i $end
$var wire 1 0 rst_ni $end
$var parameter 7 g" MaxVal $end
$var parameter 7 h" MinVal $end
$var parameter 32 i" Width $end
$var reg 7 j" count_o [6:0] $end
$var reg 1 k" direction_q $end
$var reg 1 O" trigger_o $end
$upscope $end
$scope module u_sig_gen_180 $end
$var wire 1 / clk_i $end
$var wire 1 0 rst_ni $end
$var parameter 7 l" MaxVal $end
$var parameter 7 m" MinVal $end
$var parameter 32 n" Width $end
$var reg 7 o" count_o [6:0] $end
$var reg 1 p" direction_q $end
$upscope $end
$upscope $end
$scope module u_timer_ctrl $end
$var wire 1 / clk_i $end
$var wire 1 . eoc_i $end
$var wire 1 0 rst_ni $end
$var parameter 10 q" CountMax $end
$var reg 10 r" counter_q [9:0] $end
$var reg 1 s" timer_done_q $end
$var reg 1 5 trigger_o $end
$var reg 1 t" wait_eoc_q $end
$upscope $end
$upscope $end
$upscope $end
$enddefinitions $end
$comment Show the parameter values. $end
$dumpall
b1011101110 q"
b111 n"
b0 m"
b1111111 l"
b111 i"
b0 h"
b1111111 g"
b101 e"
b101 a"
b101 ]"
b101 Y"
b111 V"
b111 S"
b10 P"
b110100110010000 ;
b111001100111010 :
b100110011001110 9
b10011001010011 8
b0 7
b11110100001001000000 6
$end
#0
$dumpvars
0t"
0s"
b0 r"
1p"
b1111111 o"
1k"
b0 j"
bx f"
xd"
b10 c"
bx b"
x`"
b10 _"
bx ^"
x\"
b10 ["
bx Z"
xX"
b10 W"
b1111111 U"
b0 T"
b0 R"
b0 Q"
0O"
1N"
0M"
xL"
xK"
xJ"
xI"
b11 H"
b0 G"
b1111111 F"
1E"
0D"
b0 C"
b0 B"
bx A"
bx @"
b10 ?"
b10 >"
b10 ="
b10 <"
b0 ;"
b0 :"
b0 9"
b0 8"
b0 7"
b0 6"
b0 5"
b0 4"
b10 3"
b0 2"
b0 1"
b0 0"
b0 /"
b0 ."
b0 -"
b0 ,"
b0 +"
b0 *"
b0 )"
b0 ("
b0 '"
b10 &"
b10 %"
b10 $"
b10 #"
b0 ""
b0 !"
b0 ~
b0 }
b0 |
b0 {
b10 z
b110100110010000 y
b110100110010000 x
b0 w
b110100110010000 v
b0 u
b0 t
b0 s
b110100110010000 r
b110100110010000 q
b110100110010000 p
b101001100000110011100111110010000 o
b101001100000110011100111110010000 n
b0 m
b0 l
b0 k
b1100111 j
b1100111 i
b0 h
b1100111 g
b11111111111111110011001 f
b1100111 e
b1100111 d
b0 c
0b
b0 a
0`
b1100111 _
0^
b1100111 ]
b0 \
b0 [
b1100111 Z
b0 Y
b0 X
b1100111 W
0V
b0 U
1T
b10011000000000000000 S
b101101000000000000000 R
b111111100000000000000 Q
b0 P
1O
1N
1M
b0 L
b0 K
b110100110010000 J
b0 I
b0 H
b0 G
b0 F
b0 E
b0 D
b0 C
b0 B
b0 A
b0 @
b0 ?
1>
b0 =
b10111 <
05
b0 4
b0 3
b110011 2
b11 1
00
0/
0.
0-
b0 ,
0+
0*
0)
0(
0'
0&
0%
0$
1#
0"
b110011 !
$end
#4000
0J"
0K"
0\"
b0 ^"
0I"
0`"
b0 b"
0L"
1/
1"
#8000
0/
0"
#12000
1/
1"
#16000
0/
0"
#20000
1/
1"
#24000
0/
0"
#28000
1/
1"
#32000
0/
0"
#36000
1/
1"
#40000
0/
0"
#44000
1/
1"
#48000
0/
0"
#52000
1/
1"
#56000
0/
0"
#60000
1/
1"
#64000
0/
0"
#68000
1/
1"
#72000
0/
0"
#76000
1/
1"
#80000
0/
0"
#84000
1/
1"
#88000
0/
0"
#92000
1/
1"
#96000
0/
0"
#100000
1/
1"
#104000
0/
0"
#108000
1/
1"
#112000
0/
0"
#116000
1/
1"
#120000
0/
0"
#124000
1/
1"
#128000
0/
0"
#132000
1/
1"
#136000
0/
0"
#140000
1/
1"
#144000
0/
0"
#148000
1/
1"
#152000
0/
0"
#156000
1/
1"
#160000
0/
0"
#164000
1/
1"
#168000
0/
0"
#172000
0T
10
0#
1/
1"
#176000
0/
0"
#180000
b1110011 i
b1110011 j
b11111111111111110001101 f
b1110011 g
b1110011 d
b1110011 e
b1110011 _
b1110011 ]
b1110011 Z
b1110011 W
b10 ?"
b101001100000111001111010011110001 n
b101001100000111001111010011110001 o
b110100110010001 y
b11111111111111111111 w
b10 z
b111111111100011000010 ~
b111111111100011000010 {
b11111100011000010 !"
b10 #"
1D"
b10 $"
0N"
b1 @
b1111110 F"
b1111110 U"
b1111110 o"
0p"
b1 G"
b1 R"
b1 j"
b1 r"
b10 @"
b10 A"
1/
1"
#184000
0/
0"
#188000
b10000000 i
b10000000 j
b11111111111111110000000 f
b10000000 g
b10000000 d
b10000000 e
b10000000 _
b10000000 ]
b10000000 Z
b10000000 W
b10 ?"
b101001100001000000001101001010010 n
b101001100001000000001101001010010 o
b110100110010010 y
b11111111111111111110 w
b10 z
b111111011100011001100 ~
b111111100000011100010 }
b11111100000011100010 |
b111111100000011100010 ""
b111111111011111101010 {
b11111011111101010 !"
b10 #"
b10 $"
b10 %"
b1 ^"
0X"
b0 Z"
b10 r"
b10 G"
b10 R"
b10 j"
b1111101 F"
b1111101 U"
b1111101 o"
b10 @
b10 @"
b10 A"
1/
1"
#192000
0/
0"
#196000
b10001100 i
b10001100 j
b11111111111111101110100 f
b10001100 g
b10001100 d
b10001100 e
b10001100 _
b10001100 ]
b10001100 Z
b10001100 W
b10 ?"
b101001100001000110011111110110011 n
b101001100001000110011111110110011 o
b110100110010011 y
b11111111111111111101 w
b10 z
b111110111100011000100 ~
b111111000000111000100 }
b11111000000111000100 |
b111111000000111000100 ""
b111111111011100000000 {
b11111011100000000 !"
b10 #"
b10 $"
b10 %"
1\"
b10 ^"
b11 @
b1111100 F"
b1111100 U"
b1111100 o"
b11 G"
b11 R"
b11 j"
b11 r"
b10 @"
b10 A"
1/
1"
#200000
0/
0"
#204000
b10011001 i
b10011001 j
b11111111111111101100111 f
b10011001 g
b10011001 d
b10011001 e
b10011001 _
b111011 !
b111011 2
b10011001 ]
b10011001 Z
b10011001 W
b10 ?"
b101001100001001100110010100010100 n
b101001100001001100110010100010100 o
b110100110010100 y
b11111111111111111100 w
b10 z
b111110011100011001110 ~
b111110100001010100110 }
b11110100001010100110 |
b111110100001010100110 ""
b111111111011000101000 {
b11111011000101000 !"
b10 #"
b1011 1
b1011 H"
b10 $"
b10 %"
1K"
b100 r"
b100 G"
b100 R"
b100 j"
b1111011 F"
b1111011 U"
b1111011 o"
b100 @
b10 @"
b10 A"
1/
1"
#208000
0/
0"
#212000
b10100110 i
b10100110 j
b11111111111111101011010 f
b10100110 g
b10100110 d
b10100110 e
b10100110 _
b10100110 ]
b10100110 Z
b10100110 W
b10 ?"
b101001100001010011000101001110101 n
b101001100001010011000101001110101 o
b110100110010101 y
b11111111111111111011 w
b10 z
b111101111100011000110 ~
b111110000001110001000 }
b11110000001110001000 |
b111110000001110001000 ""
b111111111010100111110 {
b11111010100111110 !"
b10 #"
b10 $"
b10 %"
b101 @
b1111010 F"
b1111010 U"
b1111010 o"
b101 G"
b101 R"
b101 j"
b101 r"
b10 @"
b10 A"
1/
1"
#216000
0/
0"
#220000
b10110010 i
b10110010 j
b11111111111111101001110 f
b10110010 g
b10110010 d
b10110010 e
b10110010 _
b10110010 ]
b10110010 Z
b10110010 W
b10 ?"
b101001100001011001010111111010110 n
b101001100001011001010111111010110 o
b110100110010110 y
b11111111111111111010 w
b10 z
b111101011100010111110 ~
b111101100010001101010 }
b11101100010001101010 |
b111101100010001101010 ""
b111111111010001010100 {
b11111010001010100 !"
b10 #"
b10 $"
b10 %"
b110 r"
b110 G"
b110 R"
b110 j"
b1111001 F"
b1111001 U"
b1111001 o"
b110 @
b10 @"
b10 A"
1/
1"
#224000
0/
0"
#228000
b10111111 i
b10111111 j
b11111111111111101000001 f
b10111111 g
b10111111 d
b10111111 e
b10111111 _
b10111111 ]
b10111111 Z
b10111111 W
b10 ?"
b101001100001011111101010100110111 n
b101001100001011111101010100110111 o
b110100110010111 y
b11111111111111111001 w
b10 z
b111100111100011001000 ~
b111101000010101001100 }
b11101000010101001100 |
b111101000010101001100 ""
b111111111001101111100 {
b11111001101111100 !"
b10 #"
b10 $"
b10 %"
b111 @
b1111000 F"
b1111000 U"
b1111000 o"
b111 G"
b111 R"
b111 j"
b111 r"
b10 @"
b10 A"
1/
1"
#232000
0/
0"
#236000
b11001011 i
b11001011 j
b11111111111111100110101 f
b11001011 g
b11001011 d
b11001011 e
b11001011 _
b11001011 ]
b11001011 Z
b11001011 W
b10 ?"
b101001100001100101111101010011000 n
b101001100001100101111101010011000 o
b110100110011000 y
b11111111111111111000 w
b10 z
b111100011100011000000 ~
b111100100011000101110 }
b11100100011000101110 |
b111100100011000101110 ""
b111111111001010010010 {
b11111001010010010 !"
b10 #"
b10 $"
b10 %"
b1000 r"
b1000 G"
b1000 R"
b1000 j"
b1110111 F"
b1110111 U"
b1110111 o"
b1000 @
b10 @"
b10 A"
1/
1"
#240000
0/
0"
#244000
b11011000 i
b11011000 j
b11111111111111100101000 f
b11011000 g
b11011000 d
b11011000 e
b11011000 _
b11011000 ]
b11011000 Z
b11011000 W
b10 ?"
b101001100001101100001111111111001 n
b101001100001101100001111111111001 o
b110100110011001 y
b11111111111111110111 w
b10 z
b111011111100011001010 ~
b111100000011100010000 }
b11100000011100010000 |
b111100000011100010000 ""
b111111111000110111010 {
b11111000110111010 !"
b10 #"
b10 $"
b10 %"
b1001 @
b1110110 F"
b1110110 U"
b1110110 o"
b1001 G"
b1001 R"
b1001 j"
b1001 r"
b10 @"
b10 A"
1/
1"
#248000
0/
0"
#252000
b11100101 i
b11100101 j
b11111111111111100011011 f
b11100101 g
b11100101 d
b11100101 e
b11100101 _
b11100101 ]
b11100101 Z
b11100101 W
b10 ?"
b101001100001110010100010101011010 n
b101001100001110010100010101011010 o
b110100110011010 y
b11111111111111110110 w
b10 z
b111011011100011000010 ~
b111011100011111110010 }
b11011100011111110010 |
b111011100011111110010 ""
b111111111000011010000 {
b11111000011010000 !"
b10 #"
b10 $"
b10 %"
b1010 r"
b1010 G"
b1010 R"
b1010 j"
b1110101 F"
b1110101 U"
b1110101 o"
b1010 @
b10 @"
b10 A"
1/
1"
#256000
0/
0"
#260000
b11110001 i
b11110001 j
b11111111111111100001111 f
b11110001 g
b11110001 d
b11110001 e
b11110001 _
b11110001 ]
b11110001 Z
b11110001 W
b10 ?"
b101001100001111000110101010111011 n
b101001100001111000110101010111011 o
b110100110011011 y
b11111111111111110101 w
b10 z
b111010111100010111010 ~
b111011000100011010100 }
b11011000100011010100 |
b111011000100011010100 ""
b111111110111111100110 {
b11110111111100110 !"
b10 #"
b10 $"
b10 %"
b1011 @
b1110100 F"
b1110100 U"
b1110100 o"
b1011 G"
b1011 R"
b1011 j"
b1011 r"
b10 @"
b10 A"
1/
1"
#264000
0/
0"
#268000
b11111110 i
b11111110 j
b11111111111111100000010 f
b11111110 g
b11111110 d
b11111110 e
b11111110 _
b11111110 ]
b11111110 Z
b11111110 W
b10 ?"
b101001100001111111001000000011100 n
b101001100001111111001000000011100 o
b110100110011100 y
b11111111111111110100 w
b10 z
b111010011100011000100 ~
b111010100100110110110 }
b11010100100110110110 |
b111010100100110110110 ""
b111111110111100001110 {
b11110111100001110 !"
b10 #"
b10 $"
b10 %"
b1100 r"
b1100 G"
b1100 R"
b1100 j"
b1110011 F"
b1110011 U"
b1110011 o"
b1100 @
b10 @"
b10 A"
1/
1"
#272000
0/
0"
#276000
b100001010 i
b100001010 j
b11111111111111011110110 f
b100001010 g
b100001010 d
b100001010 e
b100001010 _
b100001010 ]
b100001010 Z
b100001010 W
b10 ?"
b101001100010000101011010101111101 n
b101001100010000101011010101111101 o
b110100110011101 y
b11111111111111110011 w
b10 z
b111001111100010111100 ~
b111010000101010011000 }
b11010000101010011000 |
b111010000101010011000 ""
b111111110111000100100 {
b11110111000100100 !"
b10 #"
b10 $"
b10 %"
b1101 @
b1110010 F"
b1110010 U"
b1110010 o"
b1101 G"
b1101 R"
b1101 j"
b1101 r"
b10 @"
b10 A"
1/
1"
#280000
0/
0"
#284000
b100010111 i
b100010111 j
b11111111111111011101001 f
b100010111 g
b100010111 d
b100010111 e
b100010111 _
b100010111 ]
b100010111 Z
b100010111 W
b10 ?"
b101001100010001011101101011011110 n
b101001100010001011101101011011110 o
b110100110011110 y
b11111111111111110010 w
b10 z
b111001011100011000110 ~
b111001100101101111010 }
b11001100101101111010 |
b111001100101101111010 ""
b111111110110101001100 {
b11110110101001100 !"
b10 #"
b10 $"
b10 %"
b1110 r"
b1110 G"
b1110 R"
b1110 j"
b1110001 F"
b1110001 U"
b1110001 o"
b1110 @
b10 @"
b10 A"
1/
1"
#288000
0/
0"
#292000
b100100100 i
b100100100 j
b11111111111111011011100 f
b100100100 g
b100100100 d
b100100100 e
b100100100 _
b100100100 ]
b100100100 Z
b100100100 W
b10 ?"
b101001100010010010000000000111111 n
b101001100010010010000000000111111 o
b110100110011111 y
b11111111111111110001 w
b10 z
b111000111100010111110 ~
b111001000110001011100 }
b11001000110001011100 |
b111001000110001011100 ""
b111111110110001100010 {
b11110110001100010 !"
b10 #"
b10 $"
b10 %"
b1111 @
b1110000 F"
b1110000 U"
b1110000 o"
b1111 G"
b1111 R"
b1111 j"
b1111 r"
b10 @"
b10 A"
1/
1"
#296000
0/
0"
#300000
b100110000 i
b100110000 j
b11111111111111011010000 f
b100110000 g
b100110000 d
b100110000 e
b100110000 _
b100110000 ]
b100110000 Z
b100110000 W
b10 ?"
b101001100010011000010010110100000 n
b101001100010011000010010110100000 o
b110100110100000 y
b11111111111111110000 w
b10 z
b111000011100010110110 ~
b111000100110100111110 }
b11000100110100111110 |
b111000100110100111110 ""
b111111110101101111000 {
b11110101101111000 !"
b10 #"
b10 $"
b10 %"
b10000 r"
b10000 G"
b10000 R"
b10000 j"
b1101111 F"
b1101111 U"
b1101111 o"
b10000 @
b10 @"
b10 A"
1/
1"
#304000
0/
0"
#308000
b100111101 i
b100111101 j
b11111111111111011000011 f
b100111101 g
b100111101 d
b100111101 e
b100111101 _
b100111101 ]
b100111101 Z
b100111101 W
b10 ?"
b101001100010011110100101100000001 n
b101001100010011110100101100000001 o
b110100110100001 y
b11111111111111101111 w
b10 z
b110111111100011000000 ~
b111000000111000100000 }
b11000000111000100000 |
b111000000111000100000 ""
b111111110101010100000 {
b11110101010100000 !"
b10 #"
b10 $"
b10 %"
b10001 @
b1101110 F"
b1101110 U"
b1101110 o"
b10001 G"
b10001 R"
b10001 j"
b10001 r"
b10 @"
b10 A"
1/
1"
#312000
0/
0"
#316000
b101001001 i
b101001001 j
b11111111111111010110111 f
b101001001 g
b101001001 d
b101001001 e
b101001001 _
b101001001 ]
b101001001 Z
b101001001 W
b10 ?"
b101001100010100100111000001100010 n
b101001100010100100111000001100010 o
b110100110100010 y
b11111111111111101110 w
b10 z
b110111011100010111000 ~
b110111100111100000010 }
b10111100111100000010 |
b110111100111100000010 ""
b111111110100110110110 {
b11110100110110110 !"
b10 #"
b10 $"
b10 %"
b10010 r"
b10010 G"
b10010 R"
b10010 j"
b1101101 F"
b1101101 U"
b1101101 o"
b10010 @
b10 @"
b10 A"
1/
1"
#320000
0/
0"
#324000
b101010110 i
b101010110 j
b11111111111111010101010 f
b101010110 g
b101010110 d
b101010110 e
b101010110 _
b101010110 ]
b101010110 Z
b101010110 W
b10 ?"
b101001100010101011001010111000011 n
b101001100010101011001010111000011 o
b110100110100011 y
b11111111111111101101 w
b10 z
b110110111100011000010 ~
b110111000111111100100 }
b10111000111111100100 |
b110111000111111100100 ""
b111111110100011011110 {
b11110100011011110 !"
b10 #"
b10 $"
b10 %"
b10011 @
b1101100 F"
b1101100 U"
b1101100 o"
b10011 G"
b10011 R"
b10011 j"
b10011 r"
b10 @"
b10 A"
1/
1"
#328000
0/
0"
#332000
b101100010 i
b101100010 j
b11111111111111010011110 f
b101100010 g
b101100010 d
b101100010 e
b101100010 _
b101100010 ]
b101100010 Z
b101100010 W
b10 ?"
b101001100010110001011101100100100 n
b101001100010110001011101100100100 o
b110100110100100 y
b11111111111111101100 w
b10 z
b110110011100010111010 ~
b110110101000011000110 }
b10110101000011000110 |
b110110101000011000110 ""
b111111110011111110100 {
b11110011111110100 !"
b10 #"
b10 $"
b10 %"
b10100 r"
b10100 G"
b10100 R"
b10100 j"
b1101011 F"
b1101011 U"
b1101011 o"
b10100 @
b10 @"
b10 A"
1/
1"
#336000
0/
0"
#340000
b101101111 i
b101101111 j
b11111111111111010010001 f
b101101111 g
b101101111 d
b101101111 e
b101101111 _
b101101111 ]
b101101111 Z
b101101111 W
b10 ?"
b101001100010110111110000010000101 n
b101001100010110111110000010000101 o
b110100110100101 y
b11111111111111101011 w
b10 z
b110101111100011000100 ~
b110110001000110101000 }
b10110001000110101000 |
b110110001000110101000 ""
b111111110011100011100 {
b11110011100011100 !"
b10 #"
b10 $"
b10 %"
b10101 @
b1101010 F"
b1101010 U"
b1101010 o"
b10101 G"
b10101 R"
b10101 j"
b10101 r"
b10 @"
b10 A"
1/
1"
#344000
0/
0"
#348000
b101111100 i
b101111100 j
b11111111111111010000100 f
b101111100 g
b101111100 d
b101111100 e
b101111100 _
b101111100 ]
b101111100 Z
b101111100 W
b10 ?"
b101001100010111110000010111100110 n
b101001100010111110000010111100110 o
b110100110100110 y
b11111111111111101010 w
b10 z
b110101011100010111100 ~
b110101101001010001010 }
b10101101001010001010 |
b110101101001010001010 ""
b111111110011000110010 {
b11110011000110010 !"
b10 #"
b10 $"
b10 %"
b10110 r"
b10110 G"
b10110 R"
b10110 j"
b1101001 F"
b1101001 U"
b1101001 o"
b10110 @
b10 @"
b10 A"
1/
1"
#352000
0/
0"
#356000
b110001000 i
b110001000 j
b11111111111111001111000 f
b110001000 g
b110001000 d
b110001000 e
b110001000 _
b110001000 ]
b110001000 Z
b110001000 W
b10 ?"
b101001100011000100010101101000111 n
b101001100011000100010101101000111 o
b110100110100111 y
b11111111111111101001 w
b10 z
b110100111100010110100 ~
b110101001001101101100 }
b10101001001101101100 |
b110101001001101101100 ""
b111111110010101001000 {
b11110010101001000 !"
b10 #"
b10 $"
b10 %"
b10111 @
b1101000 F"
b1101000 U"
b1101000 o"
b10111 G"
b10111 R"
b10111 j"
b10111 r"
b10 @"
b10 A"
1/
1"
#360000
0/
0"
#364000
b110010101 i
b110010101 j
b11111111111111001101011 f
b110010101 g
b110010101 d
b110010101 e
b110010101 _
b110010101 ]
b110010101 Z
b110010101 W
b10 ?"
b101001100011001010101000010101000 n
b101001100011001010101000010101000 o
b110100110101000 y
b11111111111111101000 w
b10 z
b110100011100010111110 ~
b110100101010001001110 }
b10100101010001001110 |
b110100101010001001110 ""
b111111110010001110000 {
b11110010001110000 !"
b10 #"
b10 $"
b10 %"
b11000 r"
b11000 G"
b11000 R"
b11000 j"
b1100111 F"
b1100111 U"
b1100111 o"
b11000 @
b10 @"
b10 A"
1/
1"
#368000
0/
0"
#372000
b110100001 i
b110100001 j
b11111111111111001011111 f
b110100001 g
b110100001 d
b110100001 e
b110100001 _
b110100001 ]
b110100001 Z
b110100001 W
b10 ?"
b101001100011010000111011000001001 n
b101001100011010000111011000001001 o
b110100110101001 y
b11111111111111100111 w
b10 z
b110011111100010110110 ~
b110100001010100110000 }
b10100001010100110000 |
b110100001010100110000 ""
b111111110001110000110 {
b11110001110000110 !"
b10 #"
b10 $"
b10 %"
b11001 @
b1100110 F"
b1100110 U"
b1100110 o"
b11001 G"
b11001 R"
b11001 j"
b11001 r"
b10 @"
b10 A"
1/
1"
#376000
0/
0"
#380000
b110101110 i
b110101110 j
b11111111111111001010010 f
b110101110 g
b110101110 d
b110101110 e
b110101110 _
b110101110 ]
b110101110 Z
b110101110 W
b10 ?"
b101001100011010111001101101101010 n
b101001100011010111001101101101010 o
b110100110101010 y
b11111111111111100110 w
b10 z
b110011011100011000000 ~
b110011101011000010010 }
b10011101011000010010 |
b110011101011000010010 ""
b111111110001010101110 {
b11110001010101110 !"
b10 #"
b10 $"
b10 %"
b11010 r"
b11010 G"
b11010 R"
b11010 j"
b1100101 F"
b1100101 U"
b1100101 o"
b11010 @
b10 @"
b10 A"
1/
1"
#384000
0/
0"
